<svg width="74" height="74" viewBox="0 0 74 74" fill="none" xmlns="http://www.w3.org/2000/svg">
<g clip-path="url(#clip0)">
<path d="M66.6407 52.6093H63.3526V50.1884C63.3526 48.3355 61.8452 46.8281 59.9923 46.8281H53.3439C51.491 46.8281 49.9835 48.3355 49.9835 50.1884V51.3104C49.7595 51.2426 49.5326 51.1831 49.3026 51.1328L40.1125 49.1234C39.8283 49.0612 39.59 48.8855 39.4401 48.6513C42.1744 46.6129 43.9486 43.3547 43.9486 39.6897V31.4522C44.8884 30.2001 45.446 28.6455 45.446 26.963V20.5234C45.446 19.7252 44.7988 19.0781 44.0007 19.0781H31.0244C25.8299 19.0781 21.6038 23.3042 21.6038 28.4987V33.0108C21.6038 33.1202 21.617 33.2263 21.64 33.3287C21.617 33.4312 21.6038 33.5373 21.6038 33.6467V39.6897C21.6038 43.3378 23.3618 46.5827 26.0746 48.6229C25.9265 48.8718 25.6805 49.0596 25.3846 49.1245L16.2438 51.1298C15.3634 51.3229 14.5214 51.6507 13.7455 52.0934V42.2784H15.3202C15.8529 42.2784 16.3425 41.9854 16.594 41.5158C16.8456 41.0463 16.8187 40.4764 16.5237 40.0328L9.58623 29.5994C9.31827 29.1965 8.86661 28.9544 8.38272 28.9544C7.89883 28.9544 7.44702 29.1965 7.17921 29.5994L0.241717 40.0328C-0.0532712 40.4764 -0.0802985 41.0463 0.171475 41.5158C0.422959 41.9854 0.91263 42.2784 1.44523 42.2784H3.01989V53.1875C3.01989 53.9857 3.6671 54.6328 4.4652 54.6328C5.2633 54.6328 5.91051 53.9857 5.91051 53.1875V40.8331C5.91051 40.0348 5.2633 39.3878 4.4652 39.3878H4.14203L8.38272 33.0101L12.6235 39.3878H12.3004C11.5023 39.3878 10.8551 40.0348 10.8551 40.8331V54.7339C9.82254 56.2186 9.258 57.9993 9.258 59.8142V71.1093H5.91051V64.7499C5.91051 63.9517 5.2633 63.3046 4.4652 63.3046C3.6671 63.3046 3.01989 63.9517 3.01989 64.7499V72.5546C3.01989 73.3529 3.6671 73.9999 4.4652 73.9999H66.6407C68.4738 73.9999 69.9649 72.5087 69.9649 70.6757V55.9335C69.9649 54.1006 68.4738 52.6093 66.6407 52.6093ZM67.0743 55.9335V61.8593H60.691V60.414C60.691 59.6158 60.0438 58.9687 59.2457 58.9687H53.4644C52.6663 58.9687 52.0191 59.6158 52.0191 60.414V61.8593H46.2619V55.9335C46.2619 55.6945 46.4564 55.5 46.6954 55.5H51.4288H61.9073H66.6407C66.8798 55.5 67.0743 55.6945 67.0743 55.9335ZM57.8003 63.3046C57.8003 64.1016 57.152 64.7499 56.355 64.7499C55.5581 64.7499 54.9097 64.1016 54.9097 63.3046V61.8593H57.8003V63.3046ZM42.0532 52.5066L44.9106 53.1314C43.9861 53.7224 43.3712 54.7572 43.3712 55.9335V70.6757C43.3712 70.8227 43.3818 70.9672 43.4004 71.1093H34.8569L42.0532 52.5066ZM52.8741 50.1884C52.8741 49.9294 53.0849 49.7187 53.3439 49.7187H59.9923C60.2513 49.7187 60.462 49.9294 60.462 50.1884V52.6093H52.8741V50.1884ZM24.4946 28.4987C24.4946 24.898 27.424 21.9687 31.0245 21.9687H42.5555V26.963C42.5555 29.5008 40.4909 31.5655 37.953 31.5655H24.4946V28.4987ZM24.4946 39.6897V34.4562H37.953C39.0603 34.4562 40.1113 34.2128 41.058 33.7798V39.6897C41.058 44.2563 37.3428 47.9715 32.7762 47.9715C28.2096 47.9715 24.4946 44.2563 24.4946 39.6897ZM32.7762 50.8621C34.2406 50.8621 35.6388 50.5761 36.9215 50.0615C37.4189 50.9134 38.2251 51.5745 39.2005 51.8692L34.2215 64.74V56.9314C34.2215 56.1331 33.5743 55.4861 32.7762 55.4861C31.9781 55.4861 31.3309 56.1331 31.3309 56.9314V64.8852L26.2963 51.8705C27.2787 51.5735 28.09 50.9052 28.5863 50.0439C29.8811 50.5697 31.2949 50.8621 32.7762 50.8621ZM12.1486 59.8142C12.1486 57.0174 14.1314 54.5526 16.8632 53.9533L23.4444 52.5096L30.6395 71.1093H12.1486V59.8142ZM66.6407 71.1093H54.8492H46.6954C46.4564 71.1093 46.2619 70.9148 46.2619 70.6757V64.7499H52.2677C52.8643 66.4321 54.4708 67.6406 56.355 67.6406C58.2393 67.6406 59.8457 66.4321 60.4424 64.7499H67.0743V70.6757C67.0743 70.9148 66.8798 71.1093 66.6407 71.1093Z" fill="#623B2A"/>
<path d="M73.7582 11.0785L66.8207 0.645042C66.5529 0.242089 66.1011 0 65.6172 0C65.1333 0 64.6815 0.242089 64.4137 0.645042L57.4762 11.0785C57.1812 11.522 57.1542 12.0919 57.406 12.5615C57.6575 13.0311 58.1471 13.324 58.6797 13.324H60.2544V22.2092C60.2544 23.0075 60.9016 23.6545 61.6997 23.6545C62.4978 23.6545 63.145 23.0075 63.145 22.2092V11.8787C63.145 11.0805 62.4978 10.4334 61.6997 10.4334H61.3765L65.6172 4.05569L69.8581 10.4334H69.5349C68.7368 10.4334 68.0896 11.0805 68.0896 11.8787V40.9023H63.145V33.7717C63.145 32.9735 62.4978 32.3264 61.6997 32.3264C60.9016 32.3264 60.2544 32.9735 60.2544 33.7717V42.3476C60.2544 43.1458 60.9016 43.7929 61.6997 43.7929H69.5349C70.333 43.7929 70.9802 43.1458 70.9802 42.3476V13.324H72.5547C73.0875 13.324 73.577 13.0311 73.8285 12.5615C74.0802 12.0919 74.0532 11.522 73.7582 11.0785Z" fill="#623B2A"/>
<path d="M15.399 10.6954C16.1971 10.6954 16.8444 10.0483 16.8444 9.25004V7.16662C16.8444 6.36838 16.1971 5.72131 15.399 5.72131C14.6009 5.72131 13.9537 6.36838 13.9537 7.16662V9.25004C13.9537 10.0483 14.6008 10.6954 15.399 10.6954Z" fill="#623B2A"/>
<path d="M15.399 20.1743C16.1971 20.1743 16.8444 19.5273 16.8444 18.729V16.6458C16.8444 15.8475 16.1971 15.2004 15.399 15.2004C14.6009 15.2004 13.9537 15.8475 13.9537 16.6458V18.729C13.9537 19.5273 14.6008 20.1743 15.399 20.1743Z" fill="#623B2A"/>
<path d="M19.097 14.3932H21.1804C21.9785 14.3932 22.6257 13.7461 22.6257 12.9479C22.6257 12.1496 21.9785 11.5026 21.1804 11.5026H19.097C18.2989 11.5026 17.6517 12.1496 17.6517 12.9479C17.6517 13.7461 18.2987 14.3932 19.097 14.3932Z" fill="#623B2A"/>
<path d="M9.6178 14.3932H11.7011C12.4992 14.3932 13.1464 13.7461 13.1464 12.9479C13.1464 12.1496 12.4992 11.5026 11.7011 11.5026H9.6178C8.81969 11.5026 8.17249 12.1496 8.17249 12.9479C8.17249 13.7461 8.81955 14.3932 9.6178 14.3932Z" fill="#623B2A"/>
<path d="M61.7001 29.4366C62.0804 29.4366 62.4517 29.282 62.7219 29.0117C62.9908 28.7429 63.144 28.3714 63.144 27.9899C63.144 27.6097 62.9908 27.2383 62.7219 26.968C62.4517 26.6992 62.0788 26.5446 61.7001 26.5446C61.3185 26.5446 60.9471 26.6992 60.6768 26.968C60.4081 27.2383 60.2534 27.6097 60.2534 27.9899C60.2534 28.3714 60.408 28.7429 60.6768 29.0117C60.9471 29.282 61.3187 29.4366 61.7001 29.4366Z" fill="#623B2A"/>
<path d="M4.46869 60.4139C4.8488 60.4139 5.22169 60.2593 5.49052 59.9905C5.7592 59.7216 5.914 59.3487 5.914 58.9686C5.914 58.5885 5.75935 58.2156 5.49052 57.9468C5.22169 57.678 4.8488 57.5233 4.46869 57.5233C4.08712 57.5233 3.71568 57.678 3.44685 57.9468C3.17658 58.2156 3.02338 58.5885 3.02338 58.9686C3.02338 59.3487 3.17658 59.7216 3.44685 59.9905C3.71568 60.2593 4.08712 60.4139 4.46869 60.4139Z" fill="#623B2A"/>
</g>
<defs>
<clipPath id="clip0">
<rect width="74" height="74" fill="white"/>
</clipPath>
</defs>
</svg>
