<svg width="20" height="20" viewBox="0 0 20 20" fill="none" xmlns="http://www.w3.org/2000/svg">
<path fill-rule="evenodd" clip-rule="evenodd" d="M3.54175 10C3.54175 9.65482 3.82157 9.375 4.16675 9.375H15.8334C16.1786 9.375 16.4584 9.65482 16.4584 10C16.4584 10.3452 16.1786 10.625 15.8334 10.625H4.16675C3.82157 10.625 3.54175 10.3452 3.54175 10Z" fill="#0A6073"/>
<path fill-rule="evenodd" clip-rule="evenodd" d="M16.2752 9.55806C16.5193 9.80214 16.5193 10.1979 16.2752 10.4419L11.2752 15.4419C11.0311 15.686 10.6354 15.686 10.3913 15.4419C10.1472 15.1979 10.1472 14.8021 10.3913 14.5581L15.3913 9.55806C15.6354 9.31398 16.0311 9.31398 16.2752 9.55806Z" fill="#0A6073"/>
<path fill-rule="evenodd" clip-rule="evenodd" d="M10.3913 4.55806C10.6354 4.31398 11.0311 4.31398 11.2752 4.55806L16.2752 9.55806C16.5193 9.80214 16.5193 10.1979 16.2752 10.4419C16.0311 10.686 15.6354 10.686 15.3913 10.4419L10.3913 5.44194C10.1472 5.19786 10.1472 4.80214 10.3913 4.55806Z" fill="#0A6073"/>
</svg>
