<svg width="20" height="20" viewBox="0 0 20 20" fill="none" xmlns="http://www.w3.org/2000/svg">
<path fill-rule="evenodd" clip-rule="evenodd" d="M3.54164 10C3.54164 9.65482 3.82146 9.375 4.16664 9.375H15.8333C16.1785 9.375 16.4583 9.65482 16.4583 10C16.4583 10.3452 16.1785 10.625 15.8333 10.625H4.16664C3.82146 10.625 3.54164 10.3452 3.54164 10Z" fill="#A09C9A"/>
<path fill-rule="evenodd" clip-rule="evenodd" d="M16.2753 9.55806C16.5194 9.80214 16.5194 10.1979 16.2753 10.4419L11.2753 15.4419C11.0312 15.686 10.6355 15.686 10.3914 15.4419C10.1473 15.1979 10.1473 14.8021 10.3914 14.5581L15.3914 9.55806C15.6355 9.31398 16.0312 9.31398 16.2753 9.55806Z" fill="#A09C9A"/>
<path fill-rule="evenodd" clip-rule="evenodd" d="M10.3914 4.55806C10.6355 4.31398 11.0312 4.31398 11.2753 4.55806L16.2753 9.55806C16.5194 9.80214 16.5194 10.1979 16.2753 10.4419C16.0312 10.686 15.6355 10.686 15.3914 10.4419L10.3914 5.44194C10.1473 5.19786 10.1473 4.80214 10.3914 4.55806Z" fill="#A09C9A"/>
</svg>
