<svg width="32" height="32" viewBox="0 0 32 32" fill="#ffffff" xmlns="http://www.w3.org/2000/svg">
<path fill="#ffffff" d="M23.5414 22.2094L17.884 27.8668C17.6366 28.1144 17.3428 28.3109 17.0195 28.4449C16.6961 28.579 16.3494 28.648 15.9994 28.648C15.6493 28.648 15.3027 28.579 14.9793 28.4449C14.6559 28.3109 14.3621 28.1144 14.1147 27.8668L8.45604 22.2094C6.96433 20.7177 5.94848 18.817 5.53695 16.7479C5.12542 14.6788 5.33669 12.5341 6.14404 10.5851C6.95139 8.63603 8.31857 6.97015 10.0727 5.79811C11.8268 4.62606 13.8891 4.00049 15.9987 4.00049C18.1083 4.00049 20.1706 4.62606 21.9247 5.79811C23.6788 6.97015 25.046 8.63603 25.8534 10.5851C26.6607 12.5341 26.872 14.6788 26.4605 16.7479C26.0489 18.817 25.0331 20.7177 23.5414 22.2094Z" stroke="#623B2A" stroke-width="1.5" stroke-linecap="round" stroke-linejoin="round"/>
<path fill="#ffffff" d="M15.9987 18.6668C18.2078 18.6668 19.9987 16.8759 19.9987 14.6668C19.9987 12.4576 18.2078 10.6668 15.9987 10.6668C13.7896 10.6668 11.9987 12.4576 11.9987 14.6668C11.9987 16.8759 13.7896 18.6668 15.9987 18.6668Z" stroke="#623B2A" stroke-width="1.5" stroke-linecap="round" stroke-linejoin="round"/>
</svg>
