<svg width="22" height="22" viewBox="0 0 22 22" fill="none" xmlns="http://www.w3.org/2000/svg">
<path fill-rule="evenodd" clip-rule="evenodd" d="M11 12.375C10.2419 12.375 9.62503 11.7581 9.62503 11C9.62503 10.988 9.62779 10.9763 9.63055 10.9645C9.63307 10.9538 9.63559 10.9431 9.63603 10.9322L11.0679 12.364C11.0569 12.3644 11.0462 12.3669 11.0355 12.3695C11.0238 12.3722 11.012 12.375 11 12.375ZM4.31478 3.01857C3.95636 2.66015 3.37703 2.66015 3.01861 3.01857C2.6602 3.37699 2.6602 3.95632 3.01861 4.31474L8.17945 9.47557C7.92645 9.94215 7.7917 10.4601 7.7917 11C7.7917 12.7692 9.23086 14.2083 11 14.2083C11.5399 14.2083 12.0579 14.0736 12.5244 13.8206L17.6853 18.9814C17.864 19.1602 18.0987 19.25 18.3334 19.25C18.568 19.25 18.8027 19.1602 18.9814 18.9814C19.3399 18.623 19.3399 18.0437 18.9814 17.6852L4.31478 3.01857ZM11.2014 15.5811C7.25517 15.6728 4.67933 12.2967 3.825 10.996C4.24392 10.3415 4.94608 9.38262 5.91775 8.51087L4.62433 7.21654C3.22917 8.48979 2.3345 9.88129 1.955 10.544C1.79275 10.8264 1.79275 11.1738 1.955 11.4561C2.53158 12.4617 5.64825 17.4163 11.0227 17.4163C11.0978 17.4163 11.173 17.4154 11.2482 17.4135C12.3335 17.386 13.3162 17.1514 14.2063 16.7994L12.7579 15.351C12.2675 15.4812 11.7514 15.5674 11.2014 15.5811ZM10.7523 4.58644C16.2293 4.41502 19.4606 9.52452 20.0454 10.5439C20.2068 10.8262 20.2068 11.1736 20.0454 11.4559C19.665 12.1187 18.7703 13.5102 17.3752 14.7834L16.0818 13.4891C17.0534 12.6174 17.7565 11.6585 18.1745 11.004C17.3202 9.70327 14.7324 6.31985 10.799 6.41885C10.249 6.4326 9.73292 6.51877 9.24159 6.64894L7.79325 5.2006C8.68425 4.8486 9.666 4.61394 10.7523 4.58644Z" fill="#231F20"/>
<mask id="mask0" mask-type="alpha" maskUnits="userSpaceOnUse" x="1" y="2" width="20" height="18">
<path fill-rule="evenodd" clip-rule="evenodd" d="M11 12.375C10.2419 12.375 9.62503 11.7581 9.62503 11C9.62503 10.988 9.62779 10.9763 9.63055 10.9645C9.63307 10.9538 9.63559 10.9431 9.63603 10.9322L11.0679 12.364C11.0569 12.3644 11.0462 12.3669 11.0355 12.3695C11.0238 12.3722 11.012 12.375 11 12.375ZM4.31478 3.01857C3.95636 2.66015 3.37703 2.66015 3.01861 3.01857C2.6602 3.37699 2.6602 3.95632 3.01861 4.31474L8.17945 9.47557C7.92645 9.94215 7.7917 10.4601 7.7917 11C7.7917 12.7692 9.23086 14.2083 11 14.2083C11.5399 14.2083 12.0579 14.0736 12.5244 13.8206L17.6853 18.9814C17.864 19.1602 18.0987 19.25 18.3334 19.25C18.568 19.25 18.8027 19.1602 18.9814 18.9814C19.3399 18.623 19.3399 18.0437 18.9814 17.6852L4.31478 3.01857ZM11.2014 15.5811C7.25517 15.6728 4.67933 12.2967 3.825 10.996C4.24392 10.3415 4.94608 9.38262 5.91775 8.51087L4.62433 7.21654C3.22917 8.48979 2.3345 9.88129 1.955 10.544C1.79275 10.8264 1.79275 11.1738 1.955 11.4561C2.53158 12.4617 5.64825 17.4163 11.0227 17.4163C11.0978 17.4163 11.173 17.4154 11.2482 17.4135C12.3335 17.386 13.3162 17.1514 14.2063 16.7994L12.7579 15.351C12.2675 15.4812 11.7514 15.5674 11.2014 15.5811ZM10.7523 4.58644C16.2293 4.41502 19.4606 9.52452 20.0454 10.5439C20.2068 10.8262 20.2068 11.1736 20.0454 11.4559C19.665 12.1187 18.7703 13.5102 17.3752 14.7834L16.0818 13.4891C17.0534 12.6174 17.7565 11.6585 18.1745 11.004C17.3202 9.70327 14.7324 6.31985 10.799 6.41885C10.249 6.4326 9.73292 6.51877 9.24159 6.64894L7.79325 5.2006C8.68425 4.8486 9.666 4.61394 10.7523 4.58644Z" fill="white"/>
</mask>
<g mask="url(#mask0)">
<rect width="22" height="22" fill="#A09C9A"/>
</g>
</svg>
