<svg width="24" height="24" viewBox="0 0 24 24" fill="none" xmlns="http://www.w3.org/2000/svg">
<path fill-rule="evenodd" clip-rule="evenodd" d="M10.1841 3.93414C11.2624 2.8558 12.7249 2.25 14.2499 2.25H17.2499C17.6642 2.25 17.9999 2.58579 17.9999 3V7C17.9999 7.41421 17.6642 7.75 17.2499 7.75H14.2499C14.1836 7.75 14.12 7.77634 14.0732 7.82322C14.0263 7.87011 13.9999 7.9337 13.9999 8V9.25H17.2499C17.4809 9.25 17.699 9.3564 17.8411 9.53844C17.9832 9.72048 18.0336 9.95785 17.9775 10.1819L16.9775 14.1819C16.8941 14.5158 16.5941 14.75 16.2499 14.75H13.9999V21C13.9999 21.4142 13.6642 21.75 13.2499 21.75H9.24994C8.83573 21.75 8.49994 21.4142 8.49994 21V14.75H6.24994C5.83573 14.75 5.49994 14.4142 5.49994 14V10C5.49994 9.58579 5.83573 9.25 6.24994 9.25H8.49994V8C8.49994 6.47501 9.10574 5.01247 10.1841 3.93414ZM14.2499 3.75C13.1228 3.75 12.0418 4.19777 11.2447 4.9948C10.4477 5.79183 9.99994 6.87283 9.99994 8V10C9.99994 10.4142 9.66415 10.75 9.24994 10.75H6.99994V13.25H9.24994C9.66415 13.25 9.99994 13.5858 9.99994 14V20.25H12.4999V14C12.4999 13.5858 12.8357 13.25 13.2499 13.25H15.6644L16.2894 10.75H13.2499C12.8357 10.75 12.4999 10.4142 12.4999 10V8C12.4999 7.53587 12.6843 7.09075 13.0125 6.76256C13.3407 6.43438 13.7858 6.25 14.2499 6.25H16.4999V3.75H14.2499Z" fill="#0A6073"/>
</svg>
