<svg width="20" height="20" viewBox="0 0 20 20" fill="none" xmlns="http://www.w3.org/2000/svg">
<path fill-rule="evenodd" clip-rule="evenodd" d="M9.5583 2.89144C10.3386 2.11119 11.3968 1.67285 12.5002 1.67285C13.6037 1.67285 14.6619 2.11119 15.4422 2.89144C16.2224 3.6717 16.6608 4.72994 16.6608 5.83339C16.6608 6.93683 16.2224 7.99508 15.4422 8.77533L10.0255 14.192C9.57678 14.6407 8.96818 14.8928 8.33357 14.8928C7.69897 14.8928 7.09036 14.6407 6.64163 14.192C6.1929 13.7433 5.94081 13.1347 5.94081 12.5001C5.94081 11.8655 6.1929 11.2568 6.64163 10.8081L12.0583 5.39144C12.3024 5.14737 12.6981 5.14737 12.9422 5.39144C13.1863 5.63552 13.1863 6.03125 12.9422 6.27533L7.52552 11.692C7.3112 11.9063 7.19081 12.197 7.19081 12.5001C7.19081 12.8031 7.3112 13.0938 7.52552 13.3081C7.73983 13.5224 8.03049 13.6428 8.33357 13.6428C8.63665 13.6428 8.92732 13.5224 9.14163 13.3081L14.5583 7.89144C15.1041 7.34561 15.4108 6.60531 15.4108 5.83339C15.4108 5.06146 15.1041 4.32116 14.5583 3.77533C14.0125 3.2295 13.2722 2.92285 12.5002 2.92285C11.7283 2.92285 10.988 3.2295 10.4422 3.77533L5.02552 9.19199C4.14816 10.0693 3.65527 11.2593 3.65527 12.5001C3.65527 13.7408 4.14816 14.9308 5.02552 15.8081C5.90287 16.6855 7.09281 17.1784 8.33357 17.1784C9.57434 17.1784 10.7643 16.6855 11.6416 15.8081L17.0583 10.3914C17.3024 10.1474 17.6981 10.1474 17.9422 10.3914C18.1863 10.6355 18.1863 11.0312 17.9422 11.2753L12.5255 16.692C11.4137 17.8038 9.90586 18.4284 8.33357 18.4284C6.76129 18.4284 5.2534 17.8038 4.14163 16.692C3.02986 15.5802 2.40527 14.0723 2.40527 12.5001C2.40527 10.9278 3.02986 9.41988 4.14163 8.30811L9.5583 2.89144Z" fill="#0A6073"/>
</svg>
