<svg width="24" height="24" viewBox="0 0 24 24" fill="none" xmlns="http://www.w3.org/2000/svg">
<path fill-rule="evenodd" clip-rule="evenodd" d="M8.00009 4.75C6.20517 4.75 4.75009 6.20507 4.75009 8V16C4.75009 17.7949 6.20517 19.25 8.00009 19.25H16.0001C17.795 19.25 19.2501 17.7949 19.2501 16V8C19.2501 6.20507 17.795 4.75 16.0001 4.75H8.00009ZM3.25009 8C3.25009 5.37665 5.37674 3.25 8.00009 3.25H16.0001C18.6234 3.25 20.7501 5.37665 20.7501 8V16C20.7501 18.6234 18.6234 20.75 16.0001 20.75H8.00009C5.37674 20.75 3.25009 18.6234 3.25009 16V8Z" fill="#0A6073"/>
<path fill-rule="evenodd" clip-rule="evenodd" d="M12.0001 9.75C10.7574 9.75 9.75006 10.7574 9.75006 12C9.75006 13.2426 10.7574 14.25 12.0001 14.25C13.2427 14.25 14.2501 13.2426 14.2501 12C14.2501 10.7574 13.2427 9.75 12.0001 9.75ZM8.25006 12C8.25006 9.92893 9.92899 8.25 12.0001 8.25C14.0711 8.25 15.7501 9.92893 15.7501 12C15.7501 14.0711 14.0711 15.75 12.0001 15.75C9.92899 15.75 8.25006 14.0711 8.25006 12Z" fill="#0A6073"/>
<path fill-rule="evenodd" clip-rule="evenodd" d="M16.5001 6.75C16.9143 6.75 17.2501 7.08579 17.2501 7.5V7.50055C17.2501 7.91476 16.9143 8.25055 16.5001 8.25055C16.0858 8.25055 15.7501 7.91476 15.7501 7.50055V7.5C15.7501 7.08579 16.0858 6.75 16.5001 6.75Z" fill="#0A6073"/>
</svg>
