<svg width="32" height="32" viewBox="0 0 32 32" fill="none" xmlns="http://www.w3.org/2000/svg">
<path fill-rule="evenodd" clip-rule="evenodd" d="M4.07394 5.40732C4.76157 4.71968 5.69421 4.33337 6.66667 4.33337H16C16.9725 4.33337 17.9051 4.71968 18.5927 5.40732C19.2804 6.09495 19.6667 7.02758 19.6667 8.00004V10.6667C19.6667 11.219 19.219 11.6667 18.6667 11.6667C18.1144 11.6667 17.6667 11.219 17.6667 10.6667V8.00004C17.6667 7.55801 17.4911 7.13409 17.1785 6.82153C16.8659 6.50897 16.442 6.33337 16 6.33337H6.66667C6.22464 6.33337 5.80072 6.50897 5.48816 6.82153C5.17559 7.13409 5 7.55801 5 8.00004V24C5 24.4421 5.17559 24.866 5.48816 25.1786C5.80072 25.4911 6.22464 25.6667 6.66667 25.6667H16C16.442 25.6667 16.8659 25.4911 17.1785 25.1786C17.4911 24.866 17.6667 24.4421 17.6667 24V21.3334C17.6667 20.7811 18.1144 20.3334 18.6667 20.3334C19.219 20.3334 19.6667 20.7811 19.6667 21.3334V24C19.6667 24.9725 19.2804 25.9051 18.5927 26.5928C17.9051 27.2804 16.9725 27.6667 16 27.6667H6.66667C5.69421 27.6667 4.76157 27.2804 4.07394 26.5928C3.38631 25.9051 3 24.9725 3 24V8.00004C3 7.02758 3.38631 6.09495 4.07394 5.40732Z" fill="#0A6073"/>
<path fill-rule="evenodd" clip-rule="evenodd" d="M23.2931 11.2929C23.6836 10.9024 24.3167 10.9024 24.7073 11.2929L28.7073 15.2929C29.0978 15.6834 29.0978 16.3166 28.7073 16.7071L24.7073 20.7071C24.3167 21.0976 23.6836 21.0976 23.2931 20.7071C22.9025 20.3166 22.9025 19.6834 23.2931 19.2929L25.586 17H9.3335C8.78121 17 8.3335 16.5523 8.3335 16C8.3335 15.4477 8.78121 15 9.3335 15H25.586L23.2931 12.7071C22.9025 12.3166 22.9025 11.6834 23.2931 11.2929Z" fill="#0A6073"/>
</svg>
