<svg width="32" height="32" viewBox="0 0 32 32" fill="none" xmlns="http://www.w3.org/2000/svg">
<path fill-rule="evenodd" clip-rule="evenodd" d="M4.07394 5.40719C4.76157 4.71956 5.69421 4.33325 6.66667 4.33325H16C16.9725 4.33325 17.9051 4.71956 18.5927 5.40719C19.2804 6.09483 19.6667 7.02746 19.6667 7.99992V10.6666C19.6667 11.2189 19.219 11.6666 18.6667 11.6666C18.1144 11.6666 17.6667 11.2189 17.6667 10.6666V7.99992C17.6667 7.55789 17.4911 7.13397 17.1785 6.82141C16.8659 6.50885 16.442 6.33325 16 6.33325H6.66667C6.22464 6.33325 5.80072 6.50885 5.48816 6.82141C5.17559 7.13397 5 7.55789 5 7.99992V23.9999C5 24.4419 5.17559 24.8659 5.48816 25.1784C5.80072 25.491 6.22464 25.6666 6.66667 25.6666H16C16.442 25.6666 16.8659 25.491 17.1785 25.1784C17.4911 24.8659 17.6667 24.4419 17.6667 23.9999V21.3333C17.6667 20.781 18.1144 20.3333 18.6667 20.3333C19.219 20.3333 19.6667 20.781 19.6667 21.3333V23.9999C19.6667 24.9724 19.2804 25.905 18.5927 26.5926C17.9051 27.2803 16.9725 27.6666 16 27.6666H6.66667C5.69421 27.6666 4.76157 27.2803 4.07394 26.5926C3.38631 25.905 3 24.9724 3 23.9999V7.99992C3 7.02746 3.38631 6.09483 4.07394 5.40719Z" fill="#0A6073"/>
<path fill-rule="evenodd" clip-rule="evenodd" d="M14.0405 11.2929C14.431 11.6834 14.431 12.3166 14.0405 12.7071L11.7476 15H26.6667C27.219 15 27.6667 15.4477 27.6667 16C27.6667 16.5523 27.219 17 26.6667 17H11.7476L14.0405 19.2929C14.431 19.6834 14.431 20.3166 14.0405 20.7071C13.65 21.0976 13.0168 21.0976 12.6263 20.7071L8.62627 16.7071C8.23574 16.3166 8.23574 15.6834 8.62627 15.2929L12.6263 11.2929C13.0168 10.9024 13.65 10.9024 14.0405 11.2929Z" fill="#0A6073"/>
</svg>
