<svg width="24" height="24" viewBox="0 0 24 24" fill="none" xmlns="http://www.w3.org/2000/svg">
<path fill-rule="evenodd" clip-rule="evenodd" d="M17.5303 5.46967C17.2374 5.17678 16.7626 5.17678 16.4697 5.46967L10.4697 11.4697C10.1768 11.7626 10.1768 12.2374 10.4697 12.5303L16.4697 18.5303C16.7626 18.8232 17.2374 18.8232 17.5303 18.5303C17.8232 18.2374 17.8232 17.7626 17.5303 17.4697L12.0607 12L17.5303 6.53033C17.8232 6.23744 17.8232 5.76256 17.5303 5.46967Z" fill="#C39367"/>
<path fill-rule="evenodd" clip-rule="evenodd" d="M11.7803 5.46967C11.4874 5.17678 11.0126 5.17678 10.7197 5.46967L4.71967 11.4697C4.42678 11.7626 4.42678 12.2374 4.71967 12.5303L10.7197 18.5303C11.0126 18.8232 11.4874 18.8232 11.7803 18.5303C12.0732 18.2374 12.0732 17.7626 11.7803 17.4697L6.31066 12L11.7803 6.53033C12.0732 6.23744 12.0732 5.76256 11.7803 5.46967Z" fill="#C39367"/>
</svg>
