<svg width="40" height="40" viewBox="0 0 40 40" fill="none" xmlns="http://www.w3.org/2000/svg">
<rect x="20" width="28.2843" height="28.2843" rx="1" transform="rotate(45 20 0)" fill="#E04E39"/>
<path d="M24.0704 27.2233H20.8884V24.0413H14.1426V21.6654L19.4459 12.374H23.0945L18.2367 20.8593H20.8884V17.6773H24.0704V20.8593H25.8098V24.0413H24.0704V27.2233Z" fill="white"/>
</svg>
