<svg width="48" height="48" viewBox="0 0 48 48" fill="none" xmlns="http://www.w3.org/2000/svg">
<g opacity="1">
<path fill-rule="evenodd" clip-rule="evenodd" d="M31.0607 10.9393C30.4749 10.3536 29.5251 10.3536 28.9393 10.9393L16.9393 22.9393C16.3536 23.5251 16.3536 24.4749 16.9393 25.0607L28.9393 37.0607C29.5251 37.6464 30.4749 37.6464 31.0607 37.0607C31.6464 36.4749 31.6464 35.5251 31.0607 34.9393L20.1213 24L31.0607 13.0607C31.6464 12.4749 31.6464 11.5251 31.0607 10.9393Z" fill="#C39367"/>
</g>
</svg>
