<svg width="22" height="22" viewBox="0 0 22 22" fill="none" xmlns="http://www.w3.org/2000/svg">
<path fill-rule="evenodd" clip-rule="evenodd" d="M11 3.4375C6.82335 3.4375 3.4375 6.82335 3.4375 11C3.4375 15.1767 6.82335 18.5625 11 18.5625C15.1767 18.5625 18.5625 15.1767 18.5625 11C18.5625 6.82335 15.1767 3.4375 11 3.4375ZM2.0625 11C2.0625 6.06396 6.06396 2.0625 11 2.0625C15.936 2.0625 19.9375 6.06396 19.9375 11C19.9375 15.936 15.936 19.9375 11 19.9375C6.06396 19.9375 2.0625 15.936 2.0625 11Z" fill="#E04E39"/>
<path fill-rule="evenodd" clip-rule="evenodd" d="M8.67988 8.68061C8.94837 8.41213 9.38367 8.41213 9.65215 8.68061L10.9993 10.0278L12.3465 8.68061C12.615 8.41213 13.0503 8.41213 13.3188 8.68061C13.5873 8.9491 13.5873 9.3844 13.3188 9.65288L11.9716 11.0001L13.3188 12.3473C13.5873 12.6158 13.5873 13.0511 13.3188 13.3196C13.0503 13.588 12.615 13.588 12.3465 13.3196L10.9993 11.9724L9.65215 13.3196C9.38367 13.588 8.94837 13.588 8.67988 13.3196C8.41139 13.0511 8.41139 12.6158 8.67988 12.3473L10.0271 11.0001L8.67988 9.65288C8.41139 9.3844 8.41139 8.9491 8.67988 8.68061Z" fill="#E04E39"/>
</svg>
